<?xml version="1.0" encoding="UTF-8"?>
<!DOCTYPE svg PUBLIC "-//W3C//DTD SVG 1.1//EN" "http://www.w3.org/Graphics/SVG/1.1/DTD/svg11.dtd">
<!-- Creator: CorelDRAW X7 -->
<svg xmlns="http://www.w3.org/2000/svg" xml:space="preserve" width="3508px" height="2480px" version="1.1" style="shape-rendering:geometricPrecision; text-rendering:geometricPrecision; image-rendering:optimizeQuality; fill-rule:evenodd; clip-rule:evenodd"
viewBox="0 0 3508 2480"
 xmlns:xlink="http://www.w3.org/1999/xlink">
 <defs>
  <style type="text/css">
   <![CDATA[
    .fil3 {fill:#F1192E;fill-rule:nonzero}
    .fil0 {fill:url(#id0)}
    .fil2 {fill:url(#id1)}
    .fil1 {fill:url(#id2)}
   ]]>
  </style>
  <linearGradient id="id0" gradientUnits="userSpaceOnUse" x1="299.581" y1="1177.62" x2="896.475" y2="1177.62">
   <stop offset="0" style="stop-opacity:1; stop-color:#A32934"/>
   <stop offset="0.411765" style="stop-opacity:1; stop-color:#EC1D23"/>
   <stop offset="0.501961" style="stop-opacity:1; stop-color:#EF1D36"/>
   <stop offset="1" style="stop-opacity:1; stop-color:#F25E20"/>
  </linearGradient>
  <linearGradient id="id1" gradientUnits="userSpaceOnUse" x1="112.312" y1="1170.79" x2="896.475" y2="1170.79">
   <stop offset="0" style="stop-opacity:1; stop-color:#F25E20"/>
   <stop offset="0.611765" style="stop-opacity:1; stop-color:#EF1D36"/>
   <stop offset="1" style="stop-opacity:1; stop-color:#F45E21"/>
  </linearGradient>
  <linearGradient id="id2" gradientUnits="userSpaceOnUse" x1="118.442" y1="987.887" x2="285.628" y2="1367.84">
   <stop offset="0" style="stop-opacity:1; stop-color:#F15932"/>
   <stop offset="0.301961" style="stop-opacity:1; stop-color:#E31D34"/>
   <stop offset="0.54902" style="stop-opacity:1; stop-color:#AC2B32"/>
   <stop offset="1" style="stop-opacity:1; stop-color:#A62B30"/>
  </linearGradient>
 </defs>
 <g id="Слой_x0020_1">
  <metadata id="CorelCorpID_0Corel-Layer"/>
  <path class="fil0" d="M598 1476c-165,0 -298,-134 -298,-298 0,-165 133,-299 298,-299 165,0 298,134 298,299 0,164 -133,298 -298,298zm0 -178c-66,0 -120,-54 -120,-120 0,-67 54,-121 120,-121 66,0 120,54 120,121 0,66 -54,120 -120,120z"/>
  <path class="fil1" d="M112 1462l171 0c5,0 9,-3 9,-8l0 -552c0,-5 -4,-9 -9,-9l-162 0c-5,0 -9,4 -9,9l0 560z"/>
  <path class="fil2" d="M112 1462c17,-94 72,-283 184,-417 45,-55 102,-102 157,-130 53,-27 108,-36 145,-36 165,1 298,134 298,299 0,1 0,2 0,4l-178 0c0,-2 0,-3 0,-4 0,-67 -54,-121 -120,-121 -26,0 -93,19 -145,81 -87,102 -136,212 -161,316 0,5 -4,8 -9,8l-171 0 0 0 0 0z"/>
  <path class="fil3" d="M1885 1362c-2,-7 -108,-325 -116,-348 -7,-24 -14,-31 -35,-31l-46 0c-21,0 -28,7 -36,31 -7,23 -113,341 -115,348 -3,6 1,11 7,11l66 0c7,0 13,-3 15,-11 2,-7 63,-210 63,-210l21 -80 4 0 21 80c0,0 60,203 63,210 2,8 8,11 15,11l65 0c7,0 10,-5 8,-11zm-362 -184c0,-83 -11,-121 -33,-149 -25,-32 -63,-52 -125,-52l0 0 0 0c-61,0 -99,20 -124,52 -18,23 -28,52 -31,105l-58 0 0 -140c0,-7 -4,-11 -11,-11l-63 0c-7,0 -11,4 -11,11l0 368c0,7 4,11 11,11l63 0c7,0 11,-4 11,-11l0 -155 57 0c2,63 12,95 32,120 25,32 63,52 124,52l0 0 0 0c62,0 100,-20 125,-52 22,-29 33,-66 33,-149 0,0 0,0 0,0 0,0 0,0 0,0zm-94 86l0 0c-10,24 -29,38 -64,38 -34,0 -53,-14 -63,-38 -10,-22 -10,-65 -10,-86 0,-21 0,-64 10,-86 10,-24 29,-39 63,-39 35,0 54,15 64,39 9,22 10,65 10,86 0,21 -1,64 -10,86zm1633 -143c0,0 0,0 0,0l0 0c-1,-44 -8,-73 -33,-100 -27,-29 -66,-38 -96,-38l-81 0 -54 0c-21,0 -31,6 -31,31l0 348c0,7 4,11 11,11l62 0c7,0 12,-4 12,-11l0 -84 0 -19 81 0c30,0 69,-9 96,-38 25,-27 32,-56 33,-100l0 0c0,0 0,0 0,0zm-144 67l0 0 -66 0 0 -134 66 0c45,0 59,34 59,67 0,33 -14,67 -59,67zm-196 174c-2,-7 -108,-325 -116,-348 -7,-24 -15,-31 -35,-31l-47 0c-20,0 -27,7 -35,31 -7,23 -113,341 -116,348 -2,6 2,11 8,11l65 0c8,0 13,-3 16,-11 0,-1 10,-34 22,-74l127 0c12,40 22,73 23,74 2,8 8,11 15,11l65 0c7,0 10,-5 8,-11zm-217 -145l0 0c11,-36 20,-65 20,-65l21 -80 3 0 22 80c0,0 8,29 19,65l-85 0zm-207 -234l-37 0c-21,0 -29,8 -36,23 -7,15 -62,138 -62,138l-35 80 -2 0 -35 -80c0,0 -55,-123 -62,-138 -7,-15 -15,-23 -36,-23l-37 0c-23,0 -31,8 -31,31l0 348c0,7 4,11 11,11l60 0c7,0 12,-4 12,-11l0 -207 3 0 34 75c0,0 30,62 37,77 8,15 12,20 28,20l35 0c16,0 20,-5 27,-20 7,-15 37,-77 37,-77l34 -75 4 0 0 207c0,7 4,11 11,11l60 0c7,0 11,-4 11,-11l0 -348c0,-23 -8,-31 -31,-31zm1070 72l-98 0 0 307c0,7 -4,11 -11,11l-63 0c-7,0 -11,-4 -11,-11l0 -307 -95 0c-7,0 -11,-4 -11,-11l0 -50c0,-7 4,-11 11,-11l278 0c7,0 11,4 11,11l0 50c0,7 -4,11 -11,11z"/>
 </g>
</svg>
